127.0.0.1 - - [04/Jan/2024:10:33:36 +0530] "GET / HTTP/1.1" 404 751
127.0.0.1 - - [04/Jan/2024:10:34:05 +0530] "GET / HTTP/1.1" 404 751
0:0:0:0:0:0:0:1 - - [04/Jan/2024:10:34:05 +0530] "GET /EmpWebApp/WEB-INF/Login.html HTTP/1.1" 404 682
0:0:0:0:0:0:0:1 - - [04/Jan/2024:10:34:05 +0530] "GET /favicon.ico HTTP/1.1" 404 762
127.0.0.1 - - [04/Jan/2024:10:34:47 +0530] "GET / HTTP/1.1" 404 751
0:0:0:0:0:0:0:1 - - [04/Jan/2024:10:34:47 +0530] "GET /EmpWebApp/WEB-INF/Login.html HTTP/1.1" 404 682
127.0.0.1 - - [04/Jan/2024:10:36:21 +0530] "GET / HTTP/1.1" 404 751
0:0:0:0:0:0:0:1 - - [04/Jan/2024:10:36:21 +0530] "GET /EmpWebApp/WEB-INF/Login.html HTTP/1.1" 404 682
0:0:0:0:0:0:0:1 - - [04/Jan/2024:10:36:25 +0530] "GET /EmpWebApp/WEB-INF/Login.html HTTP/1.1" 404 682
127.0.0.1 - - [04/Jan/2024:10:48:43 +0530] "GET / HTTP/1.1" 404 751
0:0:0:0:0:0:0:1 - - [04/Jan/2024:10:48:44 +0530] "GET /EmpWebApp/WEB-INF/Login.html HTTP/1.1" 404 682
127.0.0.1 - - [04/Jan/2024:10:52:42 +0530] "GET / HTTP/1.1" 404 751
0:0:0:0:0:0:0:1 - - [04/Jan/2024:10:52:43 +0530] "GET /EmpWebApp/WEB-INF/Login.html HTTP/1.1" 404 682
127.0.0.1 - - [04/Jan/2024:10:54:59 +0530] "GET / HTTP/1.1" 404 751
0:0:0:0:0:0:0:1 - - [04/Jan/2024:10:54:59 +0530] "GET /EmpWebApp/WEB-INF/Login.html HTTP/1.1" 404 682
0:0:0:0:0:0:0:1 - - [04/Jan/2024:10:56:53 +0530] "GET /EmpWebApp/WEB-INF/Login.html HTTP/1.1" 404 682
127.0.0.1 - - [04/Jan/2024:11:03:09 +0530] "GET / HTTP/1.1" 404 751
0:0:0:0:0:0:0:1 - - [04/Jan/2024:11:03:10 +0530] "GET /EmpWebApp/LoginServlet HTTP/1.1" 500 8
0:0:0:0:0:0:0:1 - - [04/Jan/2024:11:03:18 +0530] "GET /EmpWebApp/LoginServlet HTTP/1.1" 500 8
0:0:0:0:0:0:0:1 - - [04/Jan/2024:11:03:45 +0530] "GET /EmpWebApp/Login.html HTTP/1.1" 200 530
0:0:0:0:0:0:0:1 - - [04/Jan/2024:11:05:54 +0530] "GET /EmpWebApp/LoginServlet?emailId=HR&password=hr HTTP/1.1" 200 646
0:0:0:0:0:0:0:1 - - [04/Jan/2024:11:06:01 +0530] "GET /EmpWebApp/LoginServlet?emailId=HR&password=HR HTTP/1.1" 200 103
0:0:0:0:0:0:0:1 - - [04/Jan/2024:11:07:49 +0530] "GET /EmpWebApp/Login.html HTTP/1.1" 200 530
0:0:0:0:0:0:0:1 - - [04/Jan/2024:11:07:49 +0530] "GET /favicon.ico HTTP/1.1" 404 762
0:0:0:0:0:0:0:1 - - [04/Jan/2024:11:08:01 +0530] "GET /EmpWebApp/LoginServlet?emailId=HR&password=HR HTTP/1.1" 200 103
127.0.0.1 - - [04/Jan/2024:11:10:21 +0530] "GET / HTTP/1.1" 404 751
0:0:0:0:0:0:0:1 - - [04/Jan/2024:11:10:22 +0530] "GET /EmpWebApp/Login.html HTTP/1.1" 304 -
0:0:0:0:0:0:0:1 - - [04/Jan/2024:11:10:22 +0530] "GET /favicon.ico HTTP/1.1" 404 762
0:0:0:0:0:0:0:1 - - [04/Jan/2024:11:10:25 +0530] "GET /EmpWebApp/LoginServlet?emailId=HR&password=HR HTTP/1.1" 200 208
0:0:0:0:0:0:0:1 - - [04/Jan/2024:11:12:13 +0530] "GET /EmpWebApp/Login.html HTTP/1.1" 304 -
0:0:0:0:0:0:0:1 - - [04/Jan/2024:11:12:13 +0530] "GET /favicon.ico HTTP/1.1" 404 762
127.0.0.1 - - [04/Jan/2024:11:51:50 +0530] "GET / HTTP/1.1" 404 751
0:0:0:0:0:0:0:1 - - [04/Jan/2024:11:51:50 +0530] "GET /EmpWebApp/Login.html HTTP/1.1" 304 -
0:0:0:0:0:0:0:1 - - [04/Jan/2024:11:51:52 +0530] "GET /EmpWebApp/LoginServlet?emailId=HR&password=HR HTTP/1.1" 200 204
0:0:0:0:0:0:0:1 - - [04/Jan/2024:11:51:55 +0530] "GET /EmpWebApp/Logout HTTP/1.1" 200 530
0:0:0:0:0:0:0:1 - - [04/Jan/2024:11:51:59 +0530] "GET /EmpWebApp/Logout HTTP/1.1" 304 -
0:0:0:0:0:0:0:1 - - [04/Jan/2024:11:52:01 +0530] "GET /EmpWebApp/Logout HTTP/1.1" 304 -
0:0:0:0:0:0:0:1 - - [04/Jan/2024:11:52:12 +0530] "GET /EmpWebApp/LoginServlet?emailId=hr&password=skkjhgf HTTP/1.1" 200 646
127.0.0.1 - - [04/Jan/2024:13:10:33 +0530] "GET / HTTP/1.1" 404 751
0:0:0:0:0:0:0:1 - - [04/Jan/2024:13:10:34 +0530] "GET /EmpWebApp/Login.html HTTP/1.1" 304 -
0:0:0:0:0:0:0:1 - - [04/Jan/2024:13:10:34 +0530] "GET /favicon.ico HTTP/1.1" 404 762
0:0:0:0:0:0:0:1 - - [04/Jan/2024:13:10:37 +0530] "GET /EmpWebApp/LoginServlet?emailId=HR&password=HR HTTP/1.1" 200 204
0:0:0:0:0:0:0:1 - - [04/Jan/2024:13:11:07 +0530] "GET /EmpWebApp/LoginServlet?emailId=harsha%40gmail.com&password=123 HTTP/1.1" 200 225
